{
  "transport": "http",
  "uri": "https://pubrpc.whaleshares.io",
  "url": "https://pubrpc.whaleshares.io",
  "dev_uri": "https://pubrpc.whaleshares.io",
  "stage_uri": "https://pubrpc.whaleshares.io",
  "address_prefix": "WLS",
  "chain_id": "de999ada2ff7ed3d3d580381f229b40b5a0261aec48eb830e540080817b72866",
  "wv_obj": null,
  "whalevault": null
}
